-----BEGIN PGP PUBLIC KEY BLOCK-----

mFIEWZGzzhMIKoZIzj0DAQcCAwT/JJjI5Id0DC01Kr7J9Dr5/H/zyFJu8fqPIR7n
gkdJ+m3bzhQKY9fj7hzzgG2U1unrS6DpvOVg/4Lk82mTe2+RtCVDaHJpcyBTY3V0
Y2hlciA8Y2hyaXNAc2N1dGNoZXIuY28udWs+iHkEExMIABUFAlmRs84CCwkCGwMC
FQgCFgACF4AAFgkQEM50+vMj1J8LGlRSRVpPUi1HUEc96QEAmQxYBO3vE9xmfKRv
055gSea0OkSZje8qB+u+Q6+KVJEA/0fjtDNffSR8/5VsqJVFgR4go9UIr0K6THxv
sjuMbljwuFYEWZGzzhIIKoZIzj0DAQcCAwQ+EoxcYTflNVaV5LybNI0Jxf+L/d8K
DvOOOT+mrBNNv7NPl3uZmYevufMgyy1zvTYoh2Nbw4ikrXKPi07W55fVAwEIB4ht
BBgTCAAJBQJZkbPOAhsMABYJEBDOdPrzI9SfCxpUUkVaT1ItR1BHF8UA/jvRxQWK
iYjpfQm+KIX6Ohq2S92g+mYhNXZdhHB/I+mHAP9qi/UE+UHPGMXH8ZEyjYpi8LlO
BRz5fNFQz1OTqav6yg==
=6LQC
-----END PGP PUBLIC KEY BLOCK-----
